<mxfile host="Electron" modified="2023-06-13T10:33:25.966Z" agent="Mozilla/5.0 (X11; Linux x86_64) AppleWebKit/537.36 (KHTML, like Gecko) draw.io/21.2.8 Chrome/106.0.5249.199 Electron/21.4.4 Safari/537.36" etag="FPN3isZVj37izSInql9J" version="21.2.8" type="device">
  <diagram name="Page-1" id="Gi6xTdU8NFOMKLzsxRMm">
    <mxGraphModel dx="3504" dy="2224" grid="1" gridSize="10" guides="1" tooltips="1" connect="1" arrows="1" fold="1" page="1" pageScale="1" pageWidth="850" pageHeight="1100" math="0" shadow="0">
      <root>
        <mxCell id="0" />
        <mxCell id="1" parent="0" />
        <mxCell id="S8KfAVMMcxnnrsJCiLt4-1" value="Players" style="swimlane;fontStyle=0;childLayout=stackLayout;horizontal=1;startSize=30;horizontalStack=0;resizeParent=1;resizeParentMax=0;resizeLast=0;collapsible=1;marginBottom=0;whiteSpace=wrap;html=1;fontSize=20;" parent="1" vertex="1">
          <mxGeometry x="440" y="250" width="280" height="120" as="geometry" />
        </mxCell>
        <mxCell id="S8KfAVMMcxnnrsJCiLt4-2" value="player_id (PK)" style="text;strokeColor=none;fillColor=none;align=left;verticalAlign=middle;spacingLeft=4;spacingRight=4;overflow=hidden;points=[[0,0.5],[1,0.5]];portConstraint=eastwest;rotatable=0;whiteSpace=wrap;html=1;fontSize=20;" parent="S8KfAVMMcxnnrsJCiLt4-1" vertex="1">
          <mxGeometry y="30" width="280" height="30" as="geometry" />
        </mxCell>
        <mxCell id="S8KfAVMMcxnnrsJCiLt4-3" value="&lt;font style=&quot;font-size: 20px;&quot;&gt;player_name (str)&lt;/font&gt;" style="text;strokeColor=none;fillColor=none;align=left;verticalAlign=middle;spacingLeft=4;spacingRight=4;overflow=hidden;points=[[0,0.5],[1,0.5]];portConstraint=eastwest;rotatable=0;whiteSpace=wrap;html=1;" parent="S8KfAVMMcxnnrsJCiLt4-1" vertex="1">
          <mxGeometry y="60" width="280" height="30" as="geometry" />
        </mxCell>
        <mxCell id="S8KfAVMMcxnnrsJCiLt4-4" value="money (uint)" style="text;strokeColor=none;fillColor=none;align=left;verticalAlign=middle;spacingLeft=4;spacingRight=4;overflow=hidden;points=[[0,0.5],[1,0.5]];portConstraint=eastwest;rotatable=0;whiteSpace=wrap;html=1;fontSize=20;" parent="S8KfAVMMcxnnrsJCiLt4-1" vertex="1">
          <mxGeometry y="90" width="280" height="30" as="geometry" />
        </mxCell>
        <mxCell id="S8KfAVMMcxnnrsJCiLt4-5" value="OBJECT_TYPES" style="swimlane;fontStyle=0;childLayout=stackLayout;horizontal=1;startSize=30;horizontalStack=0;resizeParent=1;resizeParentMax=0;resizeLast=0;collapsible=1;marginBottom=0;whiteSpace=wrap;html=1;fontSize=20;" parent="1" vertex="1">
          <mxGeometry x="680" y="830" width="280" height="90" as="geometry" />
        </mxCell>
        <mxCell id="S8KfAVMMcxnnrsJCiLt4-6" value="object_type_id (PK)" style="text;strokeColor=none;fillColor=none;align=left;verticalAlign=middle;spacingLeft=4;spacingRight=4;overflow=hidden;points=[[0,0.5],[1,0.5]];portConstraint=eastwest;rotatable=0;whiteSpace=wrap;html=1;fontSize=20;" parent="S8KfAVMMcxnnrsJCiLt4-5" vertex="1">
          <mxGeometry y="30" width="280" height="30" as="geometry" />
        </mxCell>
        <mxCell id="S8KfAVMMcxnnrsJCiLt4-7" value="&lt;font style=&quot;font-size: 20px;&quot;&gt;object_type_name (str)&lt;/font&gt;" style="text;strokeColor=none;fillColor=none;align=left;verticalAlign=middle;spacingLeft=4;spacingRight=4;overflow=hidden;points=[[0,0.5],[1,0.5]];portConstraint=eastwest;rotatable=0;whiteSpace=wrap;html=1;" parent="S8KfAVMMcxnnrsJCiLt4-5" vertex="1">
          <mxGeometry y="60" width="280" height="30" as="geometry" />
        </mxCell>
        <mxCell id="S8KfAVMMcxnnrsJCiLt4-9" value="OBJECTS" style="swimlane;fontStyle=0;childLayout=stackLayout;horizontal=1;startSize=30;horizontalStack=0;resizeParent=1;resizeParentMax=0;resizeLast=0;collapsible=1;marginBottom=0;whiteSpace=wrap;html=1;fontSize=20;" parent="1" vertex="1">
          <mxGeometry x="400" y="430" width="460" height="180" as="geometry" />
        </mxCell>
        <mxCell id="S8KfAVMMcxnnrsJCiLt4-10" value="object_id (int PK)" style="text;strokeColor=none;fillColor=none;align=left;verticalAlign=middle;spacingLeft=4;spacingRight=4;overflow=hidden;points=[[0,0.5],[1,0.5]];portConstraint=eastwest;rotatable=0;whiteSpace=wrap;html=1;fontSize=20;" parent="S8KfAVMMcxnnrsJCiLt4-9" vertex="1">
          <mxGeometry y="30" width="460" height="30" as="geometry" />
        </mxCell>
        <mxCell id="S8KfAVMMcxnnrsJCiLt4-11" value="&lt;font style=&quot;font-size: 20px;&quot;&gt;object_type_id (int FK from OBJECTS_TYPES)&lt;/font&gt;" style="text;strokeColor=none;fillColor=none;align=left;verticalAlign=middle;spacingLeft=4;spacingRight=4;overflow=hidden;points=[[0,0.5],[1,0.5]];portConstraint=eastwest;rotatable=0;whiteSpace=wrap;html=1;" parent="S8KfAVMMcxnnrsJCiLt4-9" vertex="1">
          <mxGeometry y="60" width="460" height="30" as="geometry" />
        </mxCell>
        <mxCell id="S8KfAVMMcxnnrsJCiLt4-12" value="player_id (int FK from PLAYERS)" style="text;strokeColor=none;fillColor=none;align=left;verticalAlign=middle;spacingLeft=4;spacingRight=4;overflow=hidden;points=[[0,0.5],[1,0.5]];portConstraint=eastwest;rotatable=0;whiteSpace=wrap;html=1;fontSize=20;" parent="S8KfAVMMcxnnrsJCiLt4-9" vertex="1">
          <mxGeometry y="90" width="460" height="30" as="geometry" />
        </mxCell>
        <mxCell id="S8KfAVMMcxnnrsJCiLt4-29" value="price (uint)" style="text;strokeColor=none;fillColor=none;align=left;verticalAlign=middle;spacingLeft=4;spacingRight=4;overflow=hidden;points=[[0,0.5],[1,0.5]];portConstraint=eastwest;rotatable=0;whiteSpace=wrap;html=1;fontSize=20;" parent="S8KfAVMMcxnnrsJCiLt4-9" vertex="1">
          <mxGeometry y="120" width="460" height="30" as="geometry" />
        </mxCell>
        <mxCell id="S8KfAVMMcxnnrsJCiLt4-45" value="object_name (str)" style="text;strokeColor=none;fillColor=none;align=left;verticalAlign=middle;spacingLeft=4;spacingRight=4;overflow=hidden;points=[[0,0.5],[1,0.5]];portConstraint=eastwest;rotatable=0;whiteSpace=wrap;html=1;fontSize=20;" parent="S8KfAVMMcxnnrsJCiLt4-9" vertex="1">
          <mxGeometry y="150" width="460" height="30" as="geometry" />
        </mxCell>
        <mxCell id="S8KfAVMMcxnnrsJCiLt4-24" value="" style="endArrow=none;html=1;rounded=0;exitX=0.5;exitY=1;exitDx=0;exitDy=0;fillColor=#dae8fc;strokeColor=#6c8ebf;strokeWidth=4;startArrow=none;startFill=0;endFill=0;entryX=1;entryY=0.5;entryDx=0;entryDy=0;" parent="1" source="S8KfAVMMcxnnrsJCiLt4-37" target="S8KfAVMMcxnnrsJCiLt4-6" edge="1">
          <mxGeometry width="50" height="50" relative="1" as="geometry">
            <mxPoint x="710" y="380" as="sourcePoint" />
            <mxPoint x="680" y="875" as="targetPoint" />
            <Array as="points">
              <mxPoint x="1020" y="875" />
            </Array>
          </mxGeometry>
        </mxCell>
        <mxCell id="S8KfAVMMcxnnrsJCiLt4-30" value="&lt;font style=&quot;font-size: 20px;&quot;&gt;1,1&lt;/font&gt;" style="edgeLabel;html=1;align=center;verticalAlign=middle;resizable=0;points=[];" parent="S8KfAVMMcxnnrsJCiLt4-24" vertex="1" connectable="0">
          <mxGeometry x="0.3182" y="-5" relative="1" as="geometry">
            <mxPoint x="-33" y="-20" as="offset" />
          </mxGeometry>
        </mxCell>
        <mxCell id="S8KfAVMMcxnnrsJCiLt4-25" value="" style="endArrow=none;html=1;rounded=0;exitX=0.5;exitY=1;exitDx=0;exitDy=0;entryX=0;entryY=0.5;entryDx=0;entryDy=0;strokeWidth=3;fillColor=#d5e8d4;strokeColor=#82b366;endFill=0;startArrow=none;startFill=0;" parent="1" source="S8KfAVMMcxnnrsJCiLt4-41" target="S8KfAVMMcxnnrsJCiLt4-12" edge="1">
          <mxGeometry width="50" height="50" relative="1" as="geometry">
            <mxPoint x="710" y="380" as="sourcePoint" />
            <mxPoint x="760" y="330" as="targetPoint" />
            <Array as="points">
              <mxPoint x="280" y="535" />
            </Array>
          </mxGeometry>
        </mxCell>
        <mxCell id="S8KfAVMMcxnnrsJCiLt4-27" value="0,N" style="edgeLabel;html=1;align=center;verticalAlign=middle;resizable=0;points=[];fontSize=20;" parent="S8KfAVMMcxnnrsJCiLt4-25" vertex="1" connectable="0">
          <mxGeometry x="0.4931" y="-2" relative="1" as="geometry">
            <mxPoint x="12" y="13" as="offset" />
          </mxGeometry>
        </mxCell>
        <mxCell id="S8KfAVMMcxnnrsJCiLt4-38" value="" style="endArrow=none;html=1;rounded=0;exitX=1;exitY=0.5;exitDx=0;exitDy=0;entryX=0.5;entryY=0;entryDx=0;entryDy=0;fillColor=#dae8fc;strokeColor=#6c8ebf;strokeWidth=4;startArrow=none;startFill=0;endFill=0;" parent="1" source="S8KfAVMMcxnnrsJCiLt4-11" target="S8KfAVMMcxnnrsJCiLt4-37" edge="1">
          <mxGeometry width="50" height="50" relative="1" as="geometry">
            <mxPoint x="860" y="505" as="sourcePoint" />
            <mxPoint x="1180" y="505" as="targetPoint" />
            <Array as="points">
              <mxPoint x="1020" y="505" />
            </Array>
          </mxGeometry>
        </mxCell>
        <mxCell id="S8KfAVMMcxnnrsJCiLt4-40" value="&lt;font style=&quot;font-size: 20px;&quot;&gt;0,N&lt;/font&gt;" style="edgeLabel;html=1;align=center;verticalAlign=middle;resizable=0;points=[];" parent="S8KfAVMMcxnnrsJCiLt4-38" vertex="1" connectable="0">
          <mxGeometry x="-0.4566" y="-1" relative="1" as="geometry">
            <mxPoint x="-1" y="14" as="offset" />
          </mxGeometry>
        </mxCell>
        <mxCell id="S8KfAVMMcxnnrsJCiLt4-37" value="&lt;font style=&quot;font-size: 20px;&quot;&gt;NATURE_OBJ&lt;br&gt;&lt;br&gt;-object_type_id&lt;br&gt;-object_id&lt;br&gt;&lt;/font&gt;" style="ellipse;whiteSpace=wrap;html=1;" parent="1" vertex="1">
          <mxGeometry x="930" y="660" width="180" height="120" as="geometry" />
        </mxCell>
        <mxCell id="S8KfAVMMcxnnrsJCiLt4-42" value="" style="endArrow=none;html=1;rounded=0;exitX=0;exitY=0.5;exitDx=0;exitDy=0;strokeWidth=3;fillColor=#d5e8d4;strokeColor=#82b366;endFill=0;startArrow=none;startFill=0;entryX=0.5;entryY=0;entryDx=0;entryDy=0;" parent="1" source="S8KfAVMMcxnnrsJCiLt4-2" target="S8KfAVMMcxnnrsJCiLt4-41" edge="1">
          <mxGeometry width="50" height="50" relative="1" as="geometry">
            <mxPoint x="440" y="295" as="sourcePoint" />
            <mxPoint x="380" y="190" as="targetPoint" />
            <Array as="points">
              <mxPoint x="280" y="295" />
            </Array>
          </mxGeometry>
        </mxCell>
        <mxCell id="S8KfAVMMcxnnrsJCiLt4-43" value="1,1" style="edgeLabel;html=1;align=center;verticalAlign=middle;resizable=0;points=[];fontSize=20;" parent="S8KfAVMMcxnnrsJCiLt4-42" vertex="1" connectable="0">
          <mxGeometry x="-0.7083" y="1" relative="1" as="geometry">
            <mxPoint y="-16" as="offset" />
          </mxGeometry>
        </mxCell>
        <mxCell id="S8KfAVMMcxnnrsJCiLt4-41" value="&lt;font style=&quot;font-size: 20px;&quot;&gt;POSSESSION&lt;br&gt;&lt;br&gt;-object_id&lt;br&gt;-player_id&lt;br&gt;&lt;/font&gt;" style="ellipse;whiteSpace=wrap;html=1;" parent="1" vertex="1">
          <mxGeometry x="180" y="340" width="200" height="133.33" as="geometry" />
        </mxCell>
      </root>
    </mxGraphModel>
  </diagram>
</mxfile>
